\begin{tikzpicture}
	\begin{pgfonlayer}{nodelayer}
		\node [style=small component box] (0) at (7, 3) {\texttt{isotope}};
		\node [style=small component box] (1) at (2, 3) {\texttt{nucleus}};
		\node [style=small component box] (2) at (2, 7) {\texttt{nucleus-rs}};
		\node [style=small component box] (3) at (7, 7) {\texttt{isotope-rs}};
		\node [style=small component box] (4) at (7, -2) {\texttt{isotope-ir}};
		\node [style=simple] (5) at (-7, 3) {Semantics};
		\node [style=simple] (6) at (-7, -2) {Semantics};
		\node [style=none] (7) at (-9, 5) {};
		\node [style=none] (8) at (-9, -3.5) {};
		\node [style=none] (9) at (10, -3.5) {};
		\node [style=none] (10) at (10, 5) {};
		\node [style=none] (11) at (-3.25, -2) {};
		\node [style=none] (12) at (-3.25, 3) {};
		\node [style=none, label={right:Theorem: Soundness}] (13) at (-3.25, 0.5) {};
		\node [style=none] (14) at (-7.75, 4.5) {Lean 4};
		\node [style=small component box] (15) at (13.5, -2) {\texttt{isotope-ir-rs}};
		\node [style=none] (16) at (0, 1.5) {};
		\node [style=none] (17) at (0, 4.5) {};
		\node [style=none] (18) at (9, 4.5) {};
		\node [style=none] (19) at (9, 1.5) {};
		\node [style=none] (20) at (0, 3) {};
		\node [style=none] (21) at (13.5, 7) {};
		\node [style=C API] (22) at (2, 5) {};
		\node [style=C API] (23) at (7, 5) {};
		\node [style=C API] (24) at (10, -2) {};
		\node [style=C API, label={right:= C API}] (25) at (-6.5, -5.5) {};
		\node [style=small component box] (26) at (13.5, -6) {Target};
		\node [style=none, label={right:Erasure}] (27) at (7, 0.5) {};
		\node [style=none, label={left:Codegen}] (28) at (13.5, -4) {};
	\end{pgfonlayer}
	\begin{pgfonlayer}{edgelayer}
		\draw (8.center) to (7.center);
		\draw (7.center) to (10.center);
		\draw (8.center) to (9.center);
		\draw (9.center) to (10.center);
		\draw [style=map] (0) to (4);
		\draw [style=map] (4) to (6);
		\draw [style=rel] (11.center) to (12.center);
		\draw [style=simple] (16.center) to (17.center);
		\draw [style=simple] (17.center) to (18.center);
		\draw [style=simple] (18.center) to (19.center);
		\draw [style=simple] (19.center) to (16.center);
		\draw [style=map] (20.center) to (5);
		\draw [style=apimap] (2) to (1);
		\draw [style=apimap] (3) to (0);
		\draw [style=apimap] (15) to (4);
		\draw [style=map] (21.center) to (15);
		\draw [style=simple] (3) to (21.center);
		\draw [style=map] (15) to (26);
	\end{pgfonlayer}
\end{tikzpicture}
